…
And we can still use our function “expand\_data\_2011\_2019”, as nothing
changes there

    expand_data_2011_2019(import_homicides_2020("./raw_data/homicidios_2020.xls"), 
                          "date",
                          "quantity",
                          "-")

    ## # A tibble: 12,127 × 9
    ##    departamento municipio    municipio_code weapon      year  month day   gender
    ##    <chr>        <chr>        <chr>          <chr>       <chr> <chr> <chr> <chr> 
    ##  1 AMAZONAS     LETICIA (CT) 91001000       ARMA BLANC… 2020  03    14    MASCU…
    ##  2 AMAZONAS     LETICIA (CT) 91001000       ARMA BLANC… 2020  10    20    MASCU…
    ##  3 AMAZONAS     LETICIA (CT) 91001000       ARMA BLANC… 2020  12    31    MASCU…
    ##  4 ANTIOQUIA    ABEJORRAL    05002000       ARMA BLANC… 2020  07    05    MASCU…
    ##  5 ANTIOQUIA    ABEJORRAL    05002000       ARMA BLANC… 2020  08    02    MASCU…
    ##  6 ANTIOQUIA    AMAGÁ        05030000       ARMA BLANC… 2020  02    09    MASCU…
    ##  7 ANTIOQUIA    AMAGÁ        05030000       ARMA BLANC… 2020  05    14    MASCU…
    ##  8 ANTIOQUIA    AMAGÁ        05030000       ARMA BLANC… 2020  11    22    MASCU…
    ##  9 ANTIOQUIA    ANDES        05034000       ARMA BLANC… 2020  01    17    MASCU…
    ## 10 ANTIOQUIA    ANDES        05034000       ARMA BLANC… 2020  03    12    MASCU…
    ## # ℹ 12,117 more rows
    ## # ℹ 1 more variable: age_group <chr>
…
Now, there are still 23 municipalities without code due to errors
writing the name of the municipalities or the fact that there were no
homicides in the other dataset. I will add those manually looking at the
webpage of the DANE in Colombia.

    homicides_2003_2010 |>
      filter(is.na(municipio_code)) |>
      distinct() |> 
       group_by(municipio) |>
      summarise(municipio_code = first(municipio_code),
                departamento = first(departamento)) # Ensure only unique municipio

    ## # A tibble: 27 × 3
    ##    municipio  municipio_code departamento
    ##    <chr>      <chr>          <chr>       
    ##  1 AGUADA     <NA>           SANTANDER   
    ##  2 ARATOCA    <NA>           SANTANDER   
    ##  3 BERBEO     <NA>           BOYACÁ      
    ##  4 BRICEÑO    <NA>           BOYACÁ      
    ##  5 CALIFORNIA <NA>           SANTANDER   
    ##  6 CEPITÁ     <NA>           SANTANDER   
    ##  7 CHIVOLO    <NA>           MAGDALENA   
    ##  8 CHIVOR     <NA>           BOYACÁ      
    ##  9 CIÉNEGA    <NA>           BOYACÁ      
    ## 10 COLÓN      <NA>           PUTUMAYO    
    ## # ℹ 17 more rows
…
